
{
  "header": {
    "reportVersion": 1,
    "event": "Allocation failed - JavaScript heap out of memory",
    "trigger": "FatalError",
    "filename": "report.20200304.142503.6404.0.001.json",
    "dumpEventTime": "2020-03-04T14:25:03Z",
    "dumpEventTimeStamp": "1583328303190",
    "processId": 6404,
    "cwd": "D:\\xampp\\htdocs\\sulkowski\\wp-content\\themes\\Sulkowski",
    "commandLine": [
      "node",
      "D:\\xampp\\htdocs\\sulkowski\\wp-content\\themes\\Sulkowski\\node_modules\\webpack\\bin\\webpack.js",
      "--watch",
      "--progress",
      "--hide-modules",
      "--config=node_modules/laravel-mix/setup/webpack.config.js"
    ],
    "nodejsVersion": "v12.13.1",
    "wordSize": 64,
    "arch": "x64",
    "platform": "win32",
    "componentVersions": {
      "node": "12.13.1",
      "v8": "7.7.299.13-node.16",
      "uv": "1.33.1",
      "zlib": "1.2.11",
      "brotli": "1.0.7",
      "ares": "1.15.0",
      "modules": "72",
      "nghttp2": "1.39.2",
      "napi": "5",
      "llhttp": "1.1.4",
      "http_parser": "2.8.0",
      "openssl": "1.1.1d",
      "cldr": "35.1",
      "icu": "64.2",
      "tz": "2019c",
      "unicode": "12.1"
    },
    "release": {
      "name": "node",
      "lts": "Erbium",
      "headersUrl": "https://nodejs.org/download/release/v12.13.1/node-v12.13.1-headers.tar.gz",
      "sourceUrl": "https://nodejs.org/download/release/v12.13.1/node-v12.13.1.tar.gz",
      "libUrl": "https://nodejs.org/download/release/v12.13.1/win-x64/node.lib"
    },
    "osName": "Windows_NT",
    "osRelease": "10.0.18363",
    "osVersion": "Windows 10 Pro",
    "osMachine": "x86_64",
    "cpus": [
      {
        "model": "Intel(R) Core(TM) i7-3770 CPU @ 3.40GHz",
        "speed": 3392,
        "user": 20469562,
        "nice": 0,
        "sys": 23438359,
        "idle": 404462125,
        "irq": 3527234
      },
      {
        "model": "Intel(R) Core(TM) i7-3770 CPU @ 3.40GHz",
        "speed": 3392,
        "user": 18244875,
        "nice": 0,
        "sys": 12532750,
        "idle": 417592281,
        "irq": 209968
      },
      {
        "model": "Intel(R) Core(TM) i7-3770 CPU @ 3.40GHz",
        "speed": 3392,
        "user": 34656515,
        "nice": 0,
        "sys": 20339843,
        "idle": 393373515,
        "irq": 200437
      },
      {
        "model": "Intel(R) Core(TM) i7-3770 CPU @ 3.40GHz",
        "speed": 3392,
        "user": 16004781,
        "nice": 0,
        "sys": 8837484,
        "idle": 423527625,
        "irq": 93359
      },
      {
        "model": "Intel(R) Core(TM) i7-3770 CPU @ 3.40GHz",
        "speed": 3392,
        "user": 25703031,
        "nice": 0,
        "sys": 15308796,
        "idle": 407358078,
        "irq": 165625
      },
      {
        "model": "Intel(R) Core(TM) i7-3770 CPU @ 3.40GHz",
        "speed": 3392,
        "user": 17352984,
        "nice": 0,
        "sys": 9269531,
        "idle": 421747375,
        "irq": 116765
      },
      {
        "model": "Intel(R) Core(TM) i7-3770 CPU @ 3.40GHz",
        "speed": 3392,
        "user": 24972781,
        "nice": 0,
        "sys": 13281609,
        "idle": 410115500,
        "irq": 145671
      },
      {
        "model": "Intel(R) Core(TM) i7-3770 CPU @ 3.40GHz",
        "speed": 3392,
        "user": 20799218,
        "nice": 0,
        "sys": 10881187,
        "idle": 416689500,
        "irq": 96906
      }
    ],
    "networkInterfaces": [
      {
        "name": "Ethernet",
        "internal": false,
        "mac": "f8:b1:56:9f:07:89",
        "address": "fe80::3598:186d:b125:f4d8",
        "netmask": "ffff:ffff:ffff:ffff::",
        "family": "IPv6",
        "scopeid": 6
      },
      {
        "name": "Ethernet",
        "internal": false,
        "mac": "f8:b1:56:9f:07:89",
        "address": "192.168.0.126",
        "netmask": "255.255.255.0",
        "family": "IPv4"
      },
      {
        "name": "Loopback Pseudo-Interface 1",
        "internal": true,
        "mac": "00:00:00:00:00:00",
        "address": "::1",
        "netmask": "ffff:ffff:ffff:ffff:ffff:ffff:ffff:ffff",
        "family": "IPv6",
        "scopeid": 0
      },
      {
        "name": "Loopback Pseudo-Interface 1",
        "internal": true,
        "mac": "00:00:00:00:00:00",
        "address": "127.0.0.1",
        "netmask": "255.0.0.0",
        "family": "IPv4"
      }
    ],
    "host": "DESKTOP-VBQAR9P"
  },
  "javascriptStack": {
    "message": "No stack.",
    "stack": [
      "Unavailable."
    ]
  },
  "nativeStack": [
    {
      "pc": "0x00007ff61b591729",
      "symbol": "std::basic_ostream<char,std::char_traits<char> >::operator<<+10873"
    },
    {
      "pc": "0x00007ff61b595b4c",
      "symbol": "std::basic_ostream<char,std::char_traits<char> >::operator<<+28316"
    },
    {
      "pc": "0x00007ff61b594b08",
      "symbol": "std::basic_ostream<char,std::char_traits<char> >::operator<<+24152"
    },
    {
      "pc": "0x00007ff61b68369b",
      "symbol": "v8::base::CPU::has_sse+37723"
    },
    {
      "pc": "0x00007ff61be882de",
      "symbol": "v8::Isolate::ReportExternalAllocationLimitReached+94"
    },
    {
      "pc": "0x00007ff61be70321",
      "symbol": "v8::SharedArrayBuffer::Externalize+833"
    },
    {
      "pc": "0x00007ff61bd3dbec",
      "symbol": "v8::internal::Heap::EphemeronKeyWriteBarrierFromCode+1436"
    },
    {
      "pc": "0x00007ff61bd48f90",
      "symbol": "v8::internal::Heap::ProtectUnprotectedMemoryChunks+1312"
    },
    {
      "pc": "0x00007ff61bd45ac4",
      "symbol": "v8::internal::Heap::PageFlagsAreConsistent+3204"
    },
    {
      "pc": "0x00007ff61bd3b353",
      "symbol": "v8::internal::Heap::CollectGarbage+1283"
    },
    {
      "pc": "0x00007ff61bd39b24",
      "symbol": "v8::internal::Heap::AddRetainedMap+2356"
    },
    {
      "pc": "0x00007ff61bd5adf5",
      "symbol": "v8::internal::Factory::NewFillerObject+53"
    },
    {
      "pc": "0x00007ff61bac6e19",
      "symbol": "v8::internal::interpreter::JumpTableTargetOffsets::iterator::operator=+4057"
    },
    {
      "pc": "0x00007ff61c2b404d",
      "symbol": "v8::internal::SetupIsolateDelegate::SetupHeap+567949"
    },
    {
      "pc": "0x00007ff61c233393",
      "symbol": "v8::internal::SetupIsolateDelegate::SetupHeap+40403"
    },
    {
      "pc": "0x00000101ee86e516",
      "symbol": ""
    }
  ],
  "javascriptHeap": {
    "totalMemory": 2152357888,
    "totalCommittedMemory": 2152357888,
    "usedMemory": 2138488960,
    "availableMemory": 51139096,
    "memoryLimit": 2197815296,
    "heapSpaces": {
      "read_only_space": {
        "memorySize": 262144,
        "committedMemory": 262144,
        "capacity": 261872,
        "used": 32296,
        "available": 229576
      },
      "new_space": {
        "memorySize": 2097152,
        "committedMemory": 2097152,
        "capacity": 1047488,
        "used": 144400,
        "available": 903088
      },
      "old_space": {
        "memorySize": 2093068288,
        "committedMemory": 2093068288,
        "capacity": 2090551528,
        "used": 2087049992,
        "available": 3501536
      },
      "code_space": {
        "memorySize": 3047424,
        "committedMemory": 3047424,
        "capacity": 2581824,
        "used": 2581824,
        "available": 0
      },
      "map_space": {
        "memorySize": 7606272,
        "committedMemory": 7606272,
        "capacity": 2625200,
        "used": 2625200,
        "available": 0
      },
      "large_object_space": {
        "memorySize": 45654016,
        "committedMemory": 45654016,
        "capacity": 45504848,
        "used": 45504848,
        "available": 0
      },
      "code_large_object_space": {
        "memorySize": 622592,
        "committedMemory": 622592,
        "capacity": 550400,
        "used": 550400,
        "available": 0
      },
      "new_large_object_space": {
        "memorySize": 0,
        "committedMemory": 0,
        "capacity": 1047488,
        "used": 0,
        "available": 1047488
      }
    }
  },
  "resourceUsage": {
    "userCpuSeconds": 999.765,
    "kernelCpuSeconds": 556.015,
    "cpuConsumptionPercent": 7.35802,
    "maxRss": 3712303104,
    "pageFaults": {
      "IORequired": 7372480,
      "IONotRequired": 0
    },
    "fsActivity": {
      "reads": 11751,
      "writes": 313
    }
  },
  "libuv": [
  ],
  "environmentVariables": {
    "=C:": "C:\\",
    "ALLUSERSPROFILE": "C:\\ProgramData",
    "APPDATA": "C:\\Users\\Dell\\AppData\\Roaming",
    "COLORTERM": "truecolor",
    "COMMONPROGRAMFILES": "C:\\Program Files\\Common Files",
    "CommonProgramFiles(x86)": "C:\\Program Files (x86)\\Common Files",
    "CommonProgramW6432": "C:\\Program Files\\Common Files",
    "COMPUTERNAME": "DESKTOP-VBQAR9P",
    "COMSPEC": "C:\\Windows\\system32\\cmd.exe",
    "dp0": "D:\\xampp\\htdocs\\sulkowski\\wp-content\\themes\\Sulkowski\\node_modules\\.bin\\",
    "DriverData": "C:\\Windows\\System32\\Drivers\\DriverData",
    "EXEPATH": "D:\\Software\\Git\\bin",
    "FPS_BROWSER_APP_PROFILE_STRING": "Internet Explorer",
    "FPS_BROWSER_USER_PROFILE_STRING": "Default",
    "HOME": "C:\\Users\\Dell",
    "HOMEDRIVE": "C:",
    "HOMEPATH": "\\Users\\Dell",
    "INIT_CWD": "D:\\xampp\\htdocs\\sulkowski\\wp-content\\themes\\Sulkowski",
    "LANG": "pl_PL.UTF-8",
    "LOCALAPPDATA": "C:\\Users\\Dell\\AppData\\Local",
    "LOGONSERVER": "\\\\DESKTOP-VBQAR9P",
    "MSYSTEM": "MINGW64",
    "NODE": "D:\\Software\\NodeJS\\node.exe",
    "NODE_ENV": "development",
    "npm_config_access": "",
    "npm_config_allow_same_version": "",
    "npm_config_also": "",
    "npm_config_always_auth": "",
    "npm_config_argv": "{\"remain\":[],\"cooked\":[\"run\",\"watch\"],\"original\":[\"run\",\"watch\"]}",
    "npm_config_audit": "true",
    "npm_config_audit_level": "low",
    "npm_config_auth_type": "legacy",
    "npm_config_before": "",
    "npm_config_bin_links": "true",
    "npm_config_browser": "",
    "npm_config_ca": "",
    "npm_config_cache": "C:\\Users\\Dell\\AppData\\Roaming\\npm-cache",
    "npm_config_cache_lock_retries": "10",
    "npm_config_cache_lock_stale": "60000",
    "npm_config_cache_lock_wait": "10000",
    "npm_config_cache_max": "Infinity",
    "npm_config_cache_min": "10",
    "npm_config_cafile": "",
    "npm_config_cert": "",
    "npm_config_cidr": "",
    "npm_config_color": "true",
    "npm_config_commit_hooks": "true",
    "npm_config_depth": "Infinity",
    "npm_config_description": "true",
    "npm_config_dev": "",
    "npm_config_dry_run": "",
    "npm_config_editor": "notepad.exe",
    "npm_config_engine_strict": "",
    "npm_config_fetch_retries": "2",
    "npm_config_fetch_retry_factor": "10",
    "npm_config_fetch_retry_maxtimeout": "60000",
    "npm_config_fetch_retry_mintimeout": "10000",
    "npm_config_force": "",
    "npm_config_format_package_lock": "true",
    "npm_config_fund": "true",
    "npm_config_git": "git",
    "npm_config_git_tag_version": "true",
    "npm_config_global": "",
    "npm_config_globalconfig": "C:\\Users\\Dell\\AppData\\Roaming\\npm\\etc\\npmrc",
    "npm_config_globalignorefile": "C:\\Users\\Dell\\AppData\\Roaming\\npm\\etc\\npmignore",
    "npm_config_global_style": "",
    "npm_config_group": "",
    "npm_config_ham_it_up": "",
    "npm_config_heading": "npm",
    "npm_config_https_proxy": "",
    "npm_config_if_present": "",
    "npm_config_ignore_prepublish": "",
    "npm_config_ignore_scripts": "",
    "npm_config_init_author_email": "",
    "npm_config_init_author_name": "",
    "npm_config_init_author_url": "",
    "npm_config_init_license": "ISC",
    "npm_config_init_module": "C:\\Users\\Dell\\.npm-init.js",
    "npm_config_init_version": "1.0.0",
    "npm_config_json": "",
    "npm_config_key": "",
    "npm_config_legacy_bundling": "",
    "npm_config_link": "",
    "npm_config_local_address": "",
    "npm_config_loglevel": "notice",
    "npm_config_logs_max": "10",
    "npm_config_long": "",
    "npm_config_maxsockets": "50",
    "npm_config_message": "%s",
    "npm_config_metrics_registry": "https://registry.npmjs.org/",
    "npm_config_node_gyp": "C:\\Users\\Dell\\AppData\\Roaming\\npm\\node_modules\\npm\\node_modules\\node-gyp\\bin\\node-gyp.js",
    "npm_config_node_options": "",
    "npm_config_node_version": "12.13.1",
    "npm_config_noproxy": "",
    "npm_config_offline": "",
    "npm_config_onload_script": "",
    "npm_config_only": "",
    "npm_config_optional": "true",
    "npm_config_otp": "",
    "npm_config_package_lock": "true",
    "npm_config_package_lock_only": "",
    "npm_config_parseable": "",
    "npm_config_prefer_offline": "",
    "npm_config_prefer_online": "",
    "npm_config_prefix": "C:\\Users\\Dell\\AppData\\Roaming\\npm",
    "npm_config_preid": "",
    "npm_config_production": "",
    "npm_config_progress": "true",
    "npm_config_proxy": "",
    "npm_config_read_only": "",
    "npm_config_rebuild_bundle": "true",
    "npm_config_registry": "https://registry.npmjs.org/",
    "npm_config_rollback": "true",
    "npm_config_save": "true",
    "npm_config_save_bundle": "",
    "npm_config_save_dev": "",
    "npm_config_save_exact": "",
    "npm_config_save_optional": "",
    "npm_config_save_prefix": "^",
    "npm_config_save_prod": "",
    "npm_config_scope": "",
    "npm_config_scripts_prepend_node_path": "warn-only",
    "npm_config_script_shell": "",
    "npm_config_searchexclude": "",
    "npm_config_searchlimit": "20",
    "npm_config_searchopts": "",
    "npm_config_searchstaleness": "900",
    "npm_config_send_metrics": "",
    "npm_config_shell": "C:\\Windows\\system32\\cmd.exe",
    "npm_config_shrinkwrap": "true",
    "npm_config_sign_git_commit": "",
    "npm_config_sign_git_tag": "",
    "npm_config_sso_poll_frequency": "500",
    "npm_config_sso_type": "oauth",
    "npm_config_strict_ssl": "true",
    "npm_config_tag": "latest",
    "npm_config_tag_version_prefix": "v",
    "npm_config_timing": "",
    "npm_config_tmp": "C:\\Users\\Dell\\AppData\\Local\\Temp",
    "npm_config_umask": "0000",
    "npm_config_unicode": "",
    "npm_config_unsafe_perm": "true",
    "npm_config_update_notifier": "true",
    "npm_config_usage": "",
    "npm_config_user": "",
    "npm_config_userconfig": "C:\\Users\\Dell\\.npmrc",
    "npm_config_user_agent": "npm/6.13.7 node/v12.13.1 win32 x64",
    "npm_config_version": "",
    "npm_config_versions": "",
    "npm_config_viewer": "browser",
    "npm_execpath": "C:\\Users\\Dell\\AppData\\Roaming\\npm\\node_modules\\npm\\bin\\npm-cli.js",
    "npm_lifecycle_event": "watch",
    "npm_lifecycle_script": "cross-env NODE_ENV=development node_modules/webpack/bin/webpack.js --watch --progress --hide-modules --config=node_modules/laravel-mix/setup/webpack.config.js",
    "npm_node_execpath": "D:\\Software\\NodeJS\\node.exe",
    "npm_package_author_email": "k.lyzwa7@gmail.com",
    "npm_package_author_name": "teikk7",
    "npm_package_dependencies_bootstrap": "^4.4.1",
    "npm_package_dependencies_jquery": "^3.4.1",
    "npm_package_dependencies_swiper": "^5.3.1",
    "npm_package_description": "",
    "npm_package_devDependencies_browser_sync": "^2.26.7",
    "npm_package_devDependencies_browser_sync_webpack_plugin": "^2.2.2",
    "npm_package_devDependencies_cross_env": "^6.0.3",
    "npm_package_devDependencies_laravel_mix": "^5.0.1",
    "npm_package_devDependencies_resolve_url_loader": "^3.1.1",
    "npm_package_devDependencies_sass": "^1.23.7",
    "npm_package_devDependencies_sass_loader": "^8.0.0",
    "npm_package_devDependencies_vue_template_compiler": "^2.6.11",
    "npm_package_license": "ISC",
    "npm_package_main": " ",
    "npm_package_name": "teik-starter2020",
    "npm_package_private": "true",
    "npm_package_readmeFilename": "README.md",
    "npm_package_scripts_dev": "cross-env NODE_ENV=development node_modules/webpack/bin/webpack.js --progress --hide-modules --config=node_modules/laravel-mix/setup/webpack.config.js",
    "npm_package_scripts_hot": "cross-env NODE_ENV=development webpack-dev-server --inline --hot --config=node_modules/laravel-mix/setup/webpack.config.js",
    "npm_package_scripts_production": "cross-env NODE_ENV=production node_modules/webpack/bin/webpack.js --progress --hide-modules --config=node_modules/laravel-mix/setup/webpack.config.js",
    "npm_package_scripts_watch": "cross-env NODE_ENV=development node_modules/webpack/bin/webpack.js --watch --progress --hide-modules --config=node_modules/laravel-mix/setup/webpack.config.js",
    "npm_package_version": "0.0.1",
    "NUMBER_OF_PROCESSORS": "8",
    "OneDrive": "C:\\Users\\Dell\\OneDrive",
    "OS": "Windows_NT",
    "PATH": "C:\\Users\\Dell\\AppData\\Roaming\\npm\\node_modules\\npm\\node_modules\\npm-lifecycle\\node-gyp-bin;D:\\xampp\\htdocs\\sulkowski\\wp-content\\themes\\Sulkowski\\node_modules\\.bin;D:\\Software\\Git\\mingw64\\bin;D:\\Software\\Git\\usr\\bin;C:\\Users\\Dell\\bin;C:\\Windows\\system32;C:\\Windows;C:\\Windows\\System32\\Wbem;C:\\Windows\\System32\\WindowsPowerShell\\v1.0;C:\\Windows\\System32\\OpenSSH;D:\\Software\\WinSCP;D:\\Software\\NodeJS;D:\\xampp\\php;C:\\ProgramData\\ComposerSetup\\bin;D:\\Software\\Git\\cmd;C:\\Program Files\\PuTTY;C:\\Users\\Dell\\AppData\\Local\\Microsoft\\WindowsApps;C:\\Users\\Dell\\AppData\\Local\\Programs\\Microsoft VS Code\\bin;C:\\Users\\Dell\\AppData\\Roaming\\npm;C:\\Users\\Dell\\AppData\\Roaming\\Composer\\vendor\\bin;D:\\xampp\\php;C:\\Users\\Dell\\AppData\\Local\\GitHubDesktop\\bin",
    "Path": "C:\\Users\\Dell\\AppData\\Roaming\\npm\\node_modules\\npm\\node_modules\\npm-lifecycle\\node-gyp-bin;D:\\xampp\\htdocs\\sulkowski\\wp-content\\themes\\Sulkowski\\node_modules\\.bin;D:\\Software\\Git\\mingw64\\bin;D:\\Software\\Git\\usr\\bin;C:\\Users\\Dell\\bin;C:\\Windows\\system32;C:\\Windows;C:\\Windows\\System32\\Wbem;C:\\Windows\\System32\\WindowsPowerShell\\v1.0;C:\\Windows\\System32\\OpenSSH;D:\\Software\\WinSCP;D:\\Software\\NodeJS;D:\\xampp\\php;C:\\ProgramData\\ComposerSetup\\bin;D:\\Software\\Git\\cmd;C:\\Program Files\\PuTTY;C:\\Users\\Dell\\AppData\\Local\\Microsoft\\WindowsApps;C:\\Users\\Dell\\AppData\\Local\\Programs\\Microsoft VS Code\\bin;C:\\Users\\Dell\\AppData\\Roaming\\npm;C:\\Users\\Dell\\AppData\\Roaming\\Composer\\vendor\\bin;D:\\xampp\\php;C:\\Users\\Dell\\AppData\\Local\\GitHubDesktop\\bin",
    "PATHEXT": ".COM;.EXE;.BAT;.CMD;.VBS;.VBE;.JSE;.WSF;.WSH;.MSC",
    "PLINK_PROTOCOL": "ssh",
    "PROCESSOR_ARCHITECTURE": "AMD64",
    "PROCESSOR_IDENTIFIER": "Intel64 Family 6 Model 58 Stepping 9, GenuineIntel",
    "PROCESSOR_LEVEL": "6",
    "PROCESSOR_REVISION": "3a09",
    "ProgramData": "C:\\ProgramData",
    "PROGRAMFILES": "C:\\Program Files",
    "ProgramFiles(x86)": "C:\\Program Files (x86)",
    "ProgramW6432": "C:\\Program Files",
    "PROMPT": "$P$G",
    "PSModulePath": "C:\\Program Files\\WindowsPowerShell\\Modules;C:\\Windows\\system32\\WindowsPowerShell\\v1.0\\Modules",
    "PUBLIC": "C:\\Users\\Public",
    "PWD": "D:/xampp/htdocs/sulkowski/wp-content/themes/Sulkowski",
    "SESSIONNAME": "Console",
    "SHLVL": "2",
    "SYSTEMDRIVE": "C:",
    "SYSTEMROOT": "C:\\Windows",
    "TEMP": "C:\\Users\\Dell\\AppData\\Local\\Temp",
    "TERM": "cygwin",
    "TERM_PROGRAM": "vscode",
    "TERM_PROGRAM_VERSION": "1.42.1",
    "TMP": "C:\\Users\\Dell\\AppData\\Local\\Temp",
    "USERDOMAIN": "DESKTOP-VBQAR9P",
    "USERDOMAIN_ROAMINGPROFILE": "DESKTOP-VBQAR9P",
    "USERNAME": "Dell",
    "USERPROFILE": "C:\\Users\\Dell",
    "WINDIR": "C:\\Windows",
    "_": "D:/Software/NodeJS/node.exe",
    "_prog": "node"
  },
  "sharedObjects": [
    "D:\\Software\\NodeJS\\node.exe",
    "C:\\Windows\\SYSTEM32\\ntdll.dll",
    "C:\\Program Files\\AVAST Software\\Avast\\aswhook.dll",
    "C:\\Windows\\System32\\KERNEL32.DLL",
    "C:\\Windows\\System32\\KERNELBASE.dll",
    "C:\\Windows\\System32\\WS2_32.dll",
    "C:\\Windows\\System32\\RPCRT4.dll",
    "C:\\Windows\\System32\\ADVAPI32.dll",
    "C:\\Windows\\System32\\msvcrt.dll",
    "C:\\Windows\\System32\\sechost.dll",
    "C:\\Windows\\System32\\USER32.dll",
    "C:\\Windows\\System32\\win32u.dll",
    "C:\\Windows\\System32\\GDI32.dll",
    "C:\\Windows\\System32\\gdi32full.dll",
    "C:\\Windows\\System32\\msvcp_win.dll",
    "C:\\Windows\\System32\\ucrtbase.dll",
    "C:\\Windows\\System32\\PSAPI.DLL",
    "C:\\Windows\\System32\\CRYPT32.dll",
    "C:\\Windows\\System32\\MSASN1.dll",
    "C:\\Windows\\System32\\bcrypt.dll",
    "C:\\Windows\\SYSTEM32\\dbghelp.dll",
    "C:\\Windows\\SYSTEM32\\IPHLPAPI.DLL",
    "C:\\Windows\\SYSTEM32\\USERENV.dll",
    "C:\\Windows\\System32\\profapi.dll",
    "C:\\Windows\\SYSTEM32\\WINMM.dll",
    "C:\\Windows\\SYSTEM32\\WINMMBASE.dll",
    "C:\\Windows\\System32\\cfgmgr32.dll",
    "C:\\Windows\\System32\\bcryptPrimitives.dll",
    "C:\\Windows\\System32\\IMM32.DLL",
    "C:\\Windows\\System32\\powrprof.dll",
    "C:\\Windows\\System32\\UMPDC.dll",
    "C:\\Windows\\SYSTEM32\\CRYPTBASE.DLL",
    "C:\\Windows\\system32\\uxtheme.dll",
    "C:\\Windows\\System32\\combase.dll",
    "C:\\Windows\\system32\\mswsock.dll",
    "C:\\Windows\\System32\\kernel.appcore.dll",
    "C:\\Windows\\System32\\NSI.dll",
    "C:\\Windows\\SYSTEM32\\dhcpcsvc6.DLL",
    "C:\\Windows\\SYSTEM32\\dhcpcsvc.DLL",
    "C:\\Windows\\SYSTEM32\\DNSAPI.dll",
    "C:\\Windows\\system32\\napinsp.dll",
    "C:\\Windows\\system32\\pnrpnsp.dll",
    "C:\\Windows\\System32\\winrnr.dll",
    "C:\\Windows\\system32\\NLAapi.dll",
    "C:\\Windows\\system32\\wshbth.dll",
    "C:\\Windows\\System32\\rasadhlp.dll",
    "C:\\Windows\\System32\\fwpuclnt.dll"
  ]
}